0,0,apple,76.11,true,1,Stay public space,0.png,0
1,0,apricot,90.29,true,1,Message course avoid attack society lay,1.png,0
2,0,avocado,55.89,true,1,Involve official draw unit military reveal,2.png,0
3,0,banana,27.66,true,1,Knowledge enter visit Democrat allow size,3.png,0
4,0,bell pepper,76.37,true,1,Oil interest sea three around,4.png,0
5,0,bilberry,30.83,true,1,Radio good debate democratic discover action,5.png,0
6,0,blackberry,47.07,true,1,Build food enjoy with value national,6.png,0
7,0,blackcurrant,71.82,true,1,Area feel to,7.png,0
8,0,blood orange,32.08,true,1,Whatever goal school health,8.png,0
9,0,blueberry,67.14,true,1,Else conference series situation cup campaign,9.png,0
10,0,boysenberry,91.63,true,1,Brother dinner grow find,10.png,0
11,0,breadfruit,70.51,true,1,Career foot wear garden know,11.png,0
12,0,canary melon,26.78,true,1,Several represent support rich head,12.png,0
13,0,cantaloupe,20.14,true,1,Move I truth positive address,13.png,0
14,0,cherimoya,52.68,true,1,Prepare each easy check choose oil,14.png,0
15,0,cherry,15.13,true,1,Those use shake figure,15.png,0
16,0,chili pepper,93.14,true,1,If edge together include line kid,16.png,0
17,0,clementine,96.92,true,1,Foreign every amount,17.png,0
18,0,cloudberry,44.14,true,1,Site instead across dog later generation,18.png,0
19,0,coconut,52.65,true,1,Thus person strategy writer,19.png,0
20,0,cranberry,91.44,true,1,Begin her culture,20.png,0
21,0,currant,3.49,true,1,Couple sound compare,21.png,0
22,0,damson,24.02,true,1,Pm occur relationship all contain,22.png,0
23,0,date,7.42,true,1,Rock difference when,23.png,0
24,0,dragonfruit,99.53,true,1,Us result tell trade,24.png,0
25,0,durian,12.89,true,1,Clear here much save matter,25.png,0
26,0,elderberry,42.91,true,1,Understand author computer improve against,26.png,0
27,0,feijoa,14.70,true,1,Follow mother son card purpose,27.png,0
28,0,fig,65.08,true,1,Listen music civil,28.png,0
29,0,goji berry,96.53,true,1,Actually usually argue rule ten,29.png,0
30,0,gooseberry,40.48,true,1,Never wide prepare own too,30.png,0
31,0,grape,39.21,true,1,From performance himself at anyone,31.png,0
32,0,grapefruit,6.00,true,1,Career dog state scientist future include,32.png,0
33,0,guava,83.90,true,1,Young policy house cup,33.png,0
34,0,honeydew,22.09,true,1,Develop together tough fill human message,34.png,0
35,0,huckleberry,60.24,true,1,Consumer radio send American finish serious,35.png,0
36,0,jackfruit,83.87,true,1,Charge real cultural couple describe job,36.png,0
37,0,jambul,39.45,true,1,However me particular respond staff no,37.png,0
38,0,jujube,13.43,true,1,Lead decide customer amount TV community,38.png,0
39,0,kiwi fruit,15.89,true,1,Usually coach draw public vote these,39.png,0
40,0,kumquat,8.01,true,1,Doctor peace she,40.png,0
41,0,lemon,81.93,true,1,Mind way painting produce growth,41.png,0
42,0,lime,4.98,true,1,Sea vote word,42.png,0
43,0,loquat,11.91,true,1,Two bag third type attorney left,43.png,0
44,0,lychee,34.41,true,1,Listen attention appear why phone recognize,44.png,0
45,0,mandarine,32.28,true,1,Physical above raise,45.png,0
46,0,mango,30.26,true,1,Be life design floor someone although,46.png,0
47,0,mulberry,68.04,true,1,Very who student include environment check,47.png,0
48,0,nectarine,14.33,true,1,Seek human science,48.png,0
49,0,nut,72.53,true,1,Drive defense win,49.png,0
50,0,olive,50.49,true,1,Activity kid order race direction run,50.png,0
51,0,orange,96.65,true,1,Raise identify few,51.png,0
52,0,papaya,17.10,true,1,Again student suffer participant lawyer still,52.png,0
53,0,passionfruit,4.07,true,1,Car number writer a decide stage,53.png,0
54,0,peach,39.01,true,1,Cause suddenly government billion bag employee,54.png,0
55,0,pear,29.93,true,1,Challenge provide large friend,55.png,0
56,0,persimmon,93.68,true,1,Better among likely summer bill off,56.png,0
57,0,physalis,87.31,true,1,Somebody financial once say perform style,57.png,0
58,0,pineapple,30.16,true,1,Debate Republican sign huge,58.png,0
59,0,plum,40.95,true,1,Thought military threat,59.png,0
60,0,pomegranate,77.28,true,1,Thought ever energy real small,60.png,0
61,0,pomelo,3.78,true,1,Simple mission rich drive million,61.png,0
62,0,purple mangosteen,73.15,true,1,Mouth miss since write also model,62.png,0
63,0,quince,56.24,true,1,Behind amount full,63.png,0
64,0,raisin,76.45,true,1,Team war president,64.png,0
65,0,rambutan,42.71,true,1,Idea include will other success various,65.png,0
66,0,raspberry,86.88,true,1,Officer article development stop new,66.png,0
67,0,redcurrant,24.14,true,1,Style sport assume,67.png,0
68,0,rock melon,65.05,true,1,None ago light child guy law,68.png,0
69,0,salal berry,54.33,true,1,Drug coach sound consider certainly,69.png,0
70,0,satsuma,64.16,true,1,Probably young particular affect outside,70.png,0
71,0,star fruit,37.96,true,1,Term recently nice type deal reveal,71.png,0
72,0,strawberry,83.81,true,1,Defense television still,72.png,0
73,0,tamarillo,28.90,true,1,Thank although born political require,73.png,0
74,0,tangerine,70.38,true,1,Trip east animal these like,74.png,0
75,0,tomato,24.86,true,1,National party particular me current,75.png,0
76,0,ugli fruit,99.40,true,1,Story break never while building,76.png,0
77,0,watermelon,37.94,true,1,Real safe off,77.png,0
78,0,baby grow,96.50,true,2,Help compare detail assume,78.png,0
79,0,ball gown,26.95,true,2,Off so you claim,79.png,0
80,0,belt,56.49,true,2,Suggest place crime rich,80.png,0
81,0,bikini,72.34,true,2,American treatment value executive sport under,81.png,0
82,0,blazer,65.47,true,2,Check past chair participant discussion,82.png,0
83,0,blouse,66.15,true,2,Travel actually if,83.png,0
84,0,boots,66.51,true,2,Before process role product,84.png,0
85,0,bow tie,61.88,true,2,Direction hundred knowledge few,85.png,0
86,0,boxers,53.92,true,2,Decision family result,86.png,0
87,0,bra,41.61,true,2,Scene factor friend management clearly upon,87.png,0
88,0,bra & knicker set,21.49,true,2,Human that food method common young,88.png,0
89,0,briefs,27.05,true,2,Provide ball business drive pull,89.png,0
90,0,camisole,58.22,true,2,Whether those market chair agent source,90.png,0
91,0,cap,25.16,true,2,Particular yeah action true,91.png,0
92,0,cardigan,35.73,true,2,Eight nature price too,92.png,0
93,0,cargos,82.45,true,2,Knowledge budget ago week charge,93.png,0
94,0,catsuit,40.48,true,2,Account seem happen although heart cause,94.png,0
95,0,chemise,8.83,true,2,Up spend answer long particular,95.png,0
96,0,coat,18.93,true,2,Security floor wish,96.png,0
97,0,corset,40.80,true,2,Around perform behavior memory employee,97.png,0
98,0,cravat,53.15,true,2,Hand half central PM avoid,98.png,0
99,0,cufflinks,20.88,true,2,Remain interesting movement,99.png,0
100,0,cummerbund,1.32,true,2,Including wide dream,100.png,0
101,0,dinner jacket,12.74,true,2,Town east tonight,101.png,0
102,0,dress,97.77,true,2,Difficult throw structure,102.png,0
103,0,dressing gown,28.62,true,2,Ground newspaper hotel,103.png,0
104,0,dungarees,79.31,true,2,Cut lose option wide,104.png,0
105,0,fleece,83.30,true,2,Near protect health marriage long single its,105.png,0
106,0,gloves,10.95,true,2,Note provide follow,106.png,0
107,0,hat,57.33,true,2,Claim language grow present,107.png,0
108,0,hoody,5.73,true,2,Nation religious least,108.png,0
109,0,jacket,2.05,true,2,This season only,109.png,0
110,0,jeans,96.50,true,2,Carry probably identify score member number,110.png,0
111,0,jogging suit,49.94,true,2,Ok middle throw wind break threat,111.png,0
112,0,jumper,78.07,true,2,Point rise set happen,112.png,0
113,0,kaftan,44.80,true,2,Project form plant nation finish,113.png,0
114,0,kilt,34.46,true,2,Certainly magazine according might cell,114.png,0
115,0,knickers,58.68,true,2,Concern build know TV expert,115.png,0
116,0,kurta,59.68,true,2,Cover stop top policy pattern,116.png,0
117,0,lingerie,1.94,true,2,Art result consider necessary mouth enter,117.png,0
118,0,nightgown,78.40,true,2,Cover full matter not water,118.png,0
119,0,nightwear,69.76,true,2,Professor state street television collection,119.png,0
120,0,pants,3.53,true,2,Figure not military Mrs organization,120.png,0
121,0,pashmina,17.58,true,2,There audience fight,121.png,0
122,0,polo shirt,34.19,true,2,Able rise whether lay approach need,122.png,0
123,0,poncho,17.77,true,2,North yourself dark way every heart,123.png,0
124,0,pyjamas,73.92,true,2,Where top training ten see world,124.png,0
125,0,raincoat,92.76,true,2,Up system executive them national short election,125.png,0
126,0,robe,27.87,true,2,Quite true my year,126.png,0
127,0,romper,60.18,true,2,Add citizen up writer industry southern,127.png,0
128,0,sandals,55.63,true,2,Artist pressure issue do build necessary,128.png,0
129,0,sarong,53.97,true,2,Clearly stop arm class worker,129.png,0
130,0,scarf,53.64,true,2,Herself most term clearly at,130.png,0
131,0,shawl,13.18,true,2,Physical nature agree Democrat,131.png,0
132,0,shellsuit,54.53,true,2,Just car plant agent,132.png,0
133,0,shirt,14.90,true,2,Share discussion class no lot senior,133.png,0
134,0,shoes,92.48,true,2,Just sort rather talk news be,134.png,0
135,0,shorts,40.86,true,2,Old very four goal,135.png,0
136,0,skirt,88.35,true,2,Boy economy treat reality wrong,136.png,0
137,0,slacks,81.40,true,2,Fear project value friend Mr industry,137.png,0
138,0,slippers,18.54,true,2,Himself feel shoulder raise free agency,138.png,0
139,0,socks,45.77,true,2,Culture enough leg look organization trouble,139.png,0
140,0,stockings,78.83,true,2,Sister better age better war,140.png,0
141,0,suit,36.40,true,2,Difference growth food approach,141.png,0
142,0,sunglasses,15.48,true,2,Smile eye develop democratic rate,142.png,0
143,0,sweater,18.21,true,2,Hundred effort upon,143.png,0
144,0,sweatshirt,47.12,true,2,Clearly opportunity sea,144.png,0
145,0,swimming costume,92.99,true,2,Billion reality rise choice,145.png,0
146,0,swimming shorts,97.93,true,2,Establish color involve situation,146.png,0
147,0,swimming trunks,52.46,true,2,Bill from fine,147.png,0
148,0,swimwear,87.36,true,2,Paper long rest,148.png,0
149,0,t-shirt,71.96,true,2,Theory miss property star wind manager,149.png,0
150,0,tailcoat,85.05,true,2,Charge when agreement,150.png,0
151,0,tankini,67.61,true,2,Individual true oil just tree leave,151.png,0
152,0,thong,1.30,true,2,Past often create fine democratic,152.png,0
153,0,tie,16.87,true,2,Stay new daughter real whose message,153.png,0
154,0,tights,19.87,true,2,Ground wonder generation one employee,154.png,0
155,0,top,16.75,true,2,Eight what nothing,155.png,0
156,0,tracksuit,45.97,true,2,Over fly indicate state,156.png,0
157,0,trainers,82.87,true,2,Authority well forget thought they improve,157.png,0
158,0,trousers,29.70,true,2,Top no parent certainly believe officer,158.png,0
159,0,underclothes,33.04,true,2,Assume raise on source husband,159.png,0
160,0,underpants,84.26,true,2,Something low ask movie,160.png,0
161,0,undershirt,74.91,true,2,Side skill system career like,161.png,0
162,0,underwear,84.97,true,2,Usually prove station voice firm,162.png,0
163,0,vest,82.29,true,2,Window sit poor nature Mrs about,163.png,0
164,0,vest underwear,77.37,true,2,Church walk movement including,164.png,0
165,0,waistcoat,99.88,true,2,Agreement let check significant remain,165.png,0
166,0,waterproof,65.32,true,2,Prevent include partner PM,166.png,0
167,0,zip,98.19,true,2,Cut factor view,167.png,0
168,0,acorn squash,95.56,true,3,Speak author the you water,168.png,0
169,0,alfalfa sprout,53.02,true,3,Project discussion voice popular heart,169.png,0
170,0,amaranth,11.52,true,3,Standard gun dark,170.png,0
171,0,anise,92.48,true,3,Floor reach somebody either stop,171.png,0
172,0,artichoke,90.82,true,3,Politics perhaps establish real relate,172.png,0
173,0,arugula,39.61,true,3,Many if gun another,173.png,0
174,0,asparagus,31.59,true,3,Particular office opportunity pick,174.png,0
175,0,aubergine,3.67,true,3,Prevent assume special hot same,175.png,0
176,0,azuki bean,84.83,true,3,Leave special avoid man condition institution,176.png,0
177,0,banana squash,0.28,true,3,Method put relate,177.png,0
178,0,basil,65.19,true,3,Break send own television him,178.png,0
179,0,bean sprout,19.99,true,3,Attorney year stuff office allow determine,179.png,0
180,0,beet,3.31,true,3,Especially because water best although herself,180.png,0
181,0,black bean,50.64,true,3,Office practice approach,181.png,0
182,0,black-eyed pea,2.31,true,3,Throughout process only over office budget,182.png,0
183,0,bok choy,91.08,true,3,Store low situation key,183.png,0
184,0,borlotti bean,3.66,true,3,Cold nation run somebody,184.png,0
185,0,broad beans,70.85,true,3,Alone morning exist task democratic ok,185.png,0
186,0,broccoflower,26.04,true,3,Event table certain enjoy few,186.png,0
187,0,broccoli,40.68,true,3,Important set skin,187.png,0
188,0,brussels sprout,46.17,true,3,Get interest wonder young still yes,188.png,0
189,0,butternut squash,81.88,true,3,Painting receive clear,189.png,0
190,0,cabbage,75.13,true,3,Policy agency assume,190.png,0
191,0,calabrese,63.90,true,3,Expect light speech against over,191.png,0
192,0,caraway,11.56,true,3,All window because,192.png,0
193,0,carrot,89.06,true,3,Then side walk everyone,193.png,0
194,0,cauliflower,35.35,true,3,Appear yeah modern read,194.png,0
195,0,cayenne pepper,71.36,true,3,Young act yard avoid,195.png,0
196,0,celeriac,44.24,true,3,Notice pressure six,196.png,0
197,0,celery,70.29,true,3,Expect produce on put pressure offer,197.png,0
198,0,chamomile,11.80,true,3,Behavior soon above time name might,198.png,0
199,0,chard,10.31,true,3,Individual author name,199.png,0
200,0,chayote,91.98,true,3,Deep few our capital affect management,200.png,0
201,0,chickpea,31.54,true,3,Official order walk chance,201.png,0
202,0,chives,13.11,true,3,Mother answer through experience,202.png,0
203,0,cilantro,65.51,true,3,Field key economy least sense only,203.png,0
204,0,collard green,80.36,true,3,Indicate my send for avoid which,204.png,0
205,0,corn,54.92,true,3,Bag TV option easy,205.png,0
206,0,corn salad,10.80,true,3,Sense white well allow inside,206.png,0
207,0,courgette,60.79,true,3,Natural common region camera,207.png,0
208,0,daikon,44.17,true,3,Pattern eye happy guess pay,208.png,0
209,0,delicata,32.23,true,3,Other left mention far,209.png,0
210,0,dill,68.04,true,3,Line would what marriage,210.png,0
211,0,eggplant,17.52,true,3,Article factor according,211.png,0
212,0,endive,72.14,true,3,Sing rise character form teacher,212.png,0
213,0,fennel,11.55,true,3,Need peace rich institution,213.png,0
214,0,fiddlehead,3.98,true,3,Training board right similar watch cell,214.png,0
215,0,frisee,47.00,true,3,Family challenge seven key sort,215.png,0
216,0,garlic,60.42,true,3,Trial suggest full grow such party,216.png,0
217,0,gem squash,55.02,true,3,Wife expert be,217.png,0
218,0,ginger,31.44,true,3,Major ever western,218.png,0
219,0,green bean,27.19,true,3,Management physical behind by begin,219.png,0
220,0,green pepper,80.92,true,3,Most knowledge paper I apply,220.png,0
221,0,habanero,38.69,true,3,According sound southern,221.png,0
222,0,herbs and spice,35.17,true,3,Experience hand PM great,222.png,0
223,0,horseradish,10.06,true,3,Break least ten as report guess,223.png,0
224,0,hubbard squash,90.57,true,3,Out without than from,224.png,0
225,0,jalapeno,31.22,true,3,Very bank assume success,225.png,0
226,0,jerusalem artichoke,1.83,true,3,Country traditional method figure reality truth,226.png,0
227,0,jicama,61.38,true,3,Successful way might,227.png,0
228,0,kale,88.66,true,3,Over power various name close ago,228.png,0
229,0,kidney bean,64.55,true,3,Late public anyone stock decade budget,229.png,0
230,0,kohlrabi,4.44,true,3,Cultural now before,230.png,0
231,0,lavender,46.14,true,3,Never nice agency much,231.png,0
232,0,leek ,51.05,true,3,Way go research huge memory improve,232.png,0
233,0,legume,71.74,true,3,Group attention dog arrive,233.png,0
234,0,lemon grass,15.74,true,3,Identify see leader,234.png,0
235,0,lentils,4.03,true,3,Value agent price,235.png,0
236,0,lettuce,51.90,true,3,Truth range herself approach indeed,236.png,0
237,0,lima bean,12.97,true,3,Let election arrive use,237.png,0
238,0,mamey,69.67,true,3,Network stock red religious wife,238.png,0
239,0,mangetout,91.87,true,3,Medical article million design can add,239.png,0
240,0,marjoram,93.52,true,3,Dog health specific key,240.png,0
241,0,mung bean,41.64,true,3,Past main public have street,241.png,0
242,0,mushroom,72.40,true,3,Mission official country fish rather,242.png,0
243,0,mustard green,3.01,true,3,Success manage laugh common,243.png,0
244,0,navy bean,98.99,true,3,Law ball edge yourself deal,244.png,0
245,0,new zealand spinach,95.58,true,3,Water huge people,245.png,0
246,0,nopale,12.71,true,3,Follow available job little,246.png,0
247,0,okra,11.46,true,3,Final million star,247.png,0
248,0,onion,19.22,true,3,Each our likely consumer step edge,248.png,0
249,0,oregano,12.17,true,3,Air night window own stand police,249.png,0
250,0,paprika,72.07,true,3,Yet common budget world make,250.png,0
251,0,parsley,56.87,true,3,Wrong model break account news rock,251.png,0
252,0,parsnip,42.03,true,3,Such defense suffer camera dream,252.png,0
253,0,patty pan,60.21,true,3,Determine audience range,253.png,0
254,0,pea,95.08,true,3,Say teach wide number recently,254.png,0
255,0,pinto bean,18.77,true,3,Difference oil room political Congress,255.png,0
256,0,potato,17.10,true,3,Allow left whom his visit camera,256.png,0
257,0,pumpkin,6.65,true,3,Role a determine rule answer performance,257.png,0
258,0,radicchio,84.89,true,3,Strong test change list whatever back,258.png,0
259,0,radish,66.96,true,3,Group rest probably cut staff,259.png,0
260,0,rhubarb,43.26,true,3,Close exactly experience sort drop role,260.png,0
261,0,rosemary,23.61,true,3,Player occur politics cold,261.png,0
262,0,runner bean,5.62,true,3,Measure century possible prove factor,262.png,0
263,0,rutabaga,27.76,true,3,Statement paper natural court,263.png,0
264,0,sage,34.75,true,3,Tv evidence spend challenge lose newspaper,264.png,0
265,0,scallion,56.89,true,3,Film painting house recently,265.png,0
266,0,shallot,47.75,true,3,Defense discuss beautiful whatever,266.png,0
267,0,skirret,15.17,true,3,Idea administration develop,267.png,0
268,0,snap pea,28.75,true,3,East treat party individual,268.png,0
269,0,soy bean,80.01,true,3,Product suggest south those,269.png,0
270,0,spaghetti squash,16.58,true,3,Art direction dark how citizen,270.png,0
271,0,spinach,30.85,true,3,Each future walk mention,271.png,0
272,0,squash,47.25,true,3,Information foot cut seek day station,272.png,0
273,0,sweet potato,28.38,true,3,Sing party short bed,273.png,0
274,0,tabasco pepper,34.67,true,3,Him television north,274.png,0
275,0,taro,44.59,true,3,Ground shake stock,275.png,0
276,0,tat soi,41.14,true,3,Probably wrong record,276.png,0
277,0,thyme,60.36,true,3,Strong threat pick decide attention piece firm,277.png,0
278,0,topinambur,74.86,true,3,Skill quality finish return,278.png,0
279,0,tubers,58.53,true,3,Glass ok available cultural,279.png,0
280,0,turnip,20.70,true,3,Maintain carry real,280.png,0
281,0,wasabi,68.54,true,3,Situation occur trip,281.png,0
282,0,water chestnut,24.77,true,3,Stuff benefit read enter again,282.png,0
283,0,watercress,27.84,true,3,Look movement partner wide available,283.png,0
284,0,white radish,14.37,true,3,Full answer medical difference common,284.png,0
285,0,yam,18.35,true,3,Choose return consider investment cause,285.png,0
286,0,zucchini,93.99,true,3,Worry special worry,286.png,0
287,0,Aioli,74.33,true,4,Allow process lose begin,287.png,0
288,0,Ajvar,93.56,true,4,Himself less worker media,288.png,0
289,0,Amba,56.36,true,4,Pay great image,289.png,0
290,0,Barbecue sauce,28.65,true,4,Century can sing Mr,290.png,0
291,0,Biber salçası,15.19,true,4,Them collection want professional participant case,291.png,0
292,0,Brown mustard,78.06,true,4,Note true in tell,292.png,0
293,0,Chili peppers,92.75,true,4,If as level,293.png,0
294,0,Chili sauce,23.09,true,4,Stock court several again,294.png,0
295,0,Chili oil,96.91,true,4,Commercial treatment case,295.png,0
296,0,Chimichurri,30.30,true,4,Season appear magazine build pull,296.png,0
297,0,Chutney,36.97,true,4,Protect those industry,297.png,0
298,0,Cocktail sauce,53.38,true,4,Foreign study could,298.png,0
299,0,Colo-colo,87.83,true,4,Response hope live,299.png,0
300,0,Crushed red pepper,68.14,true,4,But economic effort,300.png,0
301,0,Dabu-dabu,70.27,true,4,Through expect six town class arm,301.png,0
302,0,Dijon ketchup,47.79,true,4,Son view debate,302.png,0
303,0,Dijon mustard,47.50,true,4,Manager could she start,303.png,0
304,0,Dip,77.09,true,4,Hotel then relate return land,304.png,0
305,0,Fish paste,92.20,true,4,Environment most be grow political well,305.png,0
306,0,Fish sauce,36.98,true,4,Game along report second defense small,306.png,0
307,0,Fritessaus,86.14,true,4,Eye security continue religious fine,307.png,0
308,0,Fruit preserves,83.62,true,4,Conference morning image,308.png,0
309,0,Fry sauce,33.77,true,4,Heart moment actually,309.png,0
310,0,Gochujang,79.31,true,4,Good special site,310.png,0
311,0,Guacamole,51.41,true,4,Out myself admit,311.png,0
312,0,Honey dill,50.03,true,4,Fight information memory,312.png,0
313,0,Horseradish,12.37,true,4,Dinner throw peace,313.png,0
314,0,Hot mustard,17.42,true,4,Down with where figure collection school,314.png,0
315,0,Hot sauce,11.29,true,4,Civil reduce themselves yet boy,315.png,0
316,0,Skhug,30.41,true,4,Foreign share thousand measure draw stage,316.png,0
317,0,Kachumbari,26.38,true,4,Interesting suffer tend feeling partner,317.png,0
318,0,Kachumber,16.84,true,4,Bag course general race spring,318.png,0
319,0,Ketchup,40.14,true,4,Blood movement lawyer like collection cause,319.png,0
320,0,Fruit ketchup,60.96,true,4,Strategy skin its young,320.png,0
321,0,Banana ketchup,67.32,true,4,Hand necessary suffer financial company think could,321.png,0
322,0,Curry ketchup,68.04,true,4,Director federal add run east,322.png,0
323,0,Kimchi,11.41,true,4,Officer dream skin trial story hold,323.png,0
324,0,Khrenovina,88.63,true,4,Page spring fish market American,324.png,0
325,0,Kyopolou,37.60,true,4,Base suggest director only benefit,325.png,0
326,0,Mayonnaise,40.71,true,4,Act happy art attention whom,326.png,0
327,0,Mignonette sauce,42.20,true,4,His mind debate they rest,327.png,0
328,0,Milkette,78.47,true,4,Door pattern exactly,328.png,0
329,0,Monkey gland sauce,12.29,true,4,Music group film,329.png,0
330,0,Muhammara,35.70,true,4,Company executive book market particularly,330.png,0
331,0,Mumbo sauce,5.25,true,4,According seat public shoulder back plan,331.png,0
332,0,Murri,5.36,true,4,Small effort local shoulder,332.png,0
333,0,Mushroom ketchup,76.53,true,4,Market official area boy nearly,333.png,0
334,0,Mustard,100.38,true,4,However view medical partner truth career,334.png,0
335,0,Mostarda,66.55,true,4,Among message because action already challenge,335.png,0
336,0,Mustard oil,57.42,true,4,Big feeling speak rate,336.png,0
337,0,Tewkesbury mustard,34.34,true,4,Nor wide heart thousand,337.png,0
338,0,Turun sinappi,13.52,true,4,Quite section that,338.png,0
339,0,Nutritional yeast,9.99,true,4,Sell against weight Mr seek training,339.png,0
340,0,Olive oil,87.97,true,4,Section short serious option understand box,340.png,0
341,0,Pepper jelly,72.18,true,4,Forward win it,341.png,0
342,0,Pesto,17.86,true,4,Together evidence east just,342.png,0
343,0,Piccalilli,20.30,true,4,Daughter purpose yeah simple still stuff,343.png,0
344,0,Pickled fruit,91.04,true,4,Serve consider admit,344.png,0
345,0,Pico de gallo,91.51,true,4,Free wait upon,345.png,0
346,0,Mango pickle,84.95,true,4,Against history factor,346.png,0
347,0,Pickled cucumber,90.06,true,4,Congress protect ready individual,347.png,0
348,0,Pickled onion,39.21,true,4,Behavior edge put note,348.png,0
349,0,Pickled pepper,92.34,true,4,Wide table traditional,349.png,0
350,0,Pinđur,77.84,true,4,Report leave accept whatever,350.png,0
351,0,Popcorn seasoning,80.27,true,4,Film set carry center will cause,351.png,0
352,0,Relish,83.65,true,4,Seat doctor hope best throughout she,352.png,0
353,0,Chrain,3.77,true,4,Include detail education example meet poor,353.png,0
354,0,Ljutenica,29.72,true,4,House determine apply letter reality difference,354.png,0
355,0,Remoulade,64.01,true,4,Manage rock action around decision treatment,355.png,0
356,0,Salad cream,33.38,true,4,Ahead international behavior,356.png,0
357,0,Salad dressing,41.19,true,4,Black door white size significant yard,357.png,0
358,0,Salmoriglio,48.34,true,4,Reduce though set,358.png,0
359,0,Salsa,32.80,true,4,Enter country red,359.png,0
360,0,Salsa golf,89.19,true,4,Opportunity drug suffer physical technology traditional,360.png,0
361,0,Salt,6.23,true,4,Indeed study moment them,361.png,0
362,0,Salt and pepper,86.29,true,4,Usually ready research data page,362.png,0
363,0,Sambal,63.82,true,4,City that remember,363.png,0
364,0,Sauerkraut,74.37,true,4,So particularly official account reach painting,364.png,0
365,0,Sesame oil,45.78,true,4,Office activity example,365.png,0
366,0,Skyronnes,42.37,true,4,These street writer,366.png,0
367,0,Soy sauce,69.49,true,4,Meeting report expect,367.png,0
368,0,Sriracha,61.36,true,4,Court skin star series organization,368.png,0
369,0,Steak sauce,45.50,true,4,Right minute produce site,369.png,0
370,0,Sumbala,10.97,true,4,General street career last,370.png,0
371,0,Sweet chilli sauce,69.42,true,4,Chance line suffer matter rate piece,371.png,0
372,0,Syrup,23.91,true,4,Any help director,372.png,0
373,0,Tartar sauce,10.00,true,4,Beat personal million,373.png,0
374,0,Tekka,71.11,true,4,Suddenly relate same,374.png,0
375,0,Teriyaki sauce,11.25,true,4,Identify big crime hit stop,375.png,0
376,0,Tkemali,73.76,true,4,Wonder husband not hour deep,376.png,0
377,0,Toum,31.16,true,4,Church again night treatment,377.png,0
378,0,Vinegar,90.27,true,4,Drop require TV,378.png,0
379,0,Black vinegar,53.96,true,4,Catch them bar on lay,379.png,0
380,0,Vincotto,93.96,true,4,Director reveal party nature,380.png,0
381,0,Vino cotto,30.92,true,4,Line professor consider,381.png,0
382,0,Watermelon rind preserves,43.02,true,4,Case view he community food,382.png,0
383,0,XO sauce,99.80,true,4,Course behavior care morning,383.png,0
384,0,Za'atar,45.43,true,4,Inside store town task in chair,384.png,0
385,0,Zacuscă,36.78,true,4,Month how address indeed three responsibility,385.png,0
386,0,aged beer,86.59,true,5,Value able mouth concern,386.png,0
387,0,american rye ale or lager,41.00,true,5,Rise maintain beat government camera,387.png,0
388,0,american-style amber lager,91.90,true,5,Cup herself attorney think,388.png,0
389,0,american-style amber/red ale,83.42,true,5,Kid ever magazine however drive,389.png,0
390,0,american-style barley wine ale,17.10,true,5,Nature too discussion send address turn,390.png,0
391,0,american-style brown ale,15.25,true,5,Set take she gun,391.png,0
392,0,american-style cream ale or lager,61.43,true,5,Image already under practice ahead,392.png,0
393,0,american-style dark lager,100.90,true,5,Lot speech list none,393.png,0
394,0,american-style ice lager,30.62,true,5,Able political pretty,394.png,0
395,0,american-style imperial porter,73.65,true,5,Will dinner decade fly with,395.png,0
396,0,american-style imperial stout,41.85,true,5,Occur people hair,396.png,0
397,0,american-style india black ale,28.26,true,5,Open century item fire class,397.png,0
398,0,american-style india pale ale,11.58,true,5,Middle interview theory away,398.png,0
399,0,american-style lager,80.88,true,5,Phone character money soon may,399.png,0
400,0,american-style light lager,92.44,true,5,Window admit home itself,400.png,0
401,0,american-style low-carb light lager,22.46,true,5,Camera teacher there environment,401.png,0
402,0,american-style malt liquor,19.40,true,5,Walk American place,402.png,0
403,0,american-style marzen/oktoberfest,38.86,true,5,Peace forward win speech,403.png,0
404,0,american-style pale ale,44.71,true,5,Although ball study,404.png,0
405,0,american-style pilsener,30.09,true,5,Better tonight less feel writer,405.png,0
406,0,american-style premium lager,30.09,true,5,Society store control,406.png,0
407,0,american-style sour ale,55.02,true,5,Cold college while administration unit,407.png,0
408,0,american-style stout,13.44,true,5,Attention standard nice,408.png,0
409,0,american-style strong pale ale,60.79,true,5,Several follow couple,409.png,0
410,0,american-style wheat wine ale,7.99,true,5,Chance cost tax get Mrs,410.png,0
411,0,australasian-style light lager,73.52,true,5,Company individual say,411.png,0
412,0,australasian-style pale ale,27.56,true,5,Factor anyone hear,412.png,0
413,0,baltic-style porter,94.21,true,5,Hope sense few according writer keep,413.png,0
414,0,bamberg-style bock rauchbier,54.98,true,5,Statement consumer yourself world,414.png,0
415,0,bamberg-style helles rauchbier,88.99,true,5,During reality difference foot this hospital,415.png,0
416,0,bamberg-style marzen,46.17,true,5,International fund center,416.png,0
417,0,bamberg-style weiss rauchbier,1.46,true,5,Fish fast recently school share sometimes,417.png,0
418,0,belgian-style blonde ale,43.08,true,5,Story city indicate instead sense anything,418.png,0
419,0,belgian-style dark strong ale,40.59,true,5,Save ten if,419.png,0
420,0,belgian-style dubbel,71.86,true,5,Opportunity produce lay,420.png,0
421,0,belgian-style flanders/oud bruin,6.17,true,5,Focus sing foreign,421.png,0
422,0,belgian-style fruit lambic,58.27,true,5,Radio must left night,422.png,0
423,0,belgian-style gueuze lambic,77.20,true,5,Despite past win speech believe new,423.png,0
424,0,belgian-style lambic,90.23,true,5,Program return later begin room,424.png,0
425,0,belgian-style pale ale,74.80,true,5,Positive or great performance,425.png,0
426,0,belgian-style pale strong ale,42.90,true,5,Share important feeling,426.png,0
427,0,belgian-style quadrupel,78.60,true,5,Benefit tell mother hit,427.png,0
428,0,belgian-style table beer,76.57,true,5,War law help dark ground,428.png,0
429,0,belgian-style tripel,49.87,true,5,Section listen notice himself address pull,429.png,0
430,0,belgian-style white,77.64,true,5,Although easy with policy join out,430.png,0
431,0,berliner-style weisse,59.86,true,5,Home skill public technology something,431.png,0
432,0,bohemian-style pilsener,42.81,true,5,West join organization,432.png,0
433,0,british-style barley wine ale,91.85,true,5,Watch six yet along,433.png,0
434,0,british-style imperial stout,79.85,true,5,Member stop admit other,434.png,0
435,0,brown porter,65.38,true,5,Me church mind TV in above,435.png,0
436,0,california common beer,97.69,true,5,Health article society,436.png,0
437,0,chocolate/cocoa-flavored beer,77.42,true,5,How arm indicate less simple difference,437.png,0
438,0,classic english-style pale ale,50.20,true,5,Travel everybody hair,438.png,0
439,0,classic irish-style dry stout,94.33,true,5,High song TV fire require,439.png,0
440,0,coffee-flavored beer,57.08,true,5,Action across focus rate method,440.png,0
441,0,dark american wheat ale or lager,17.33,true,5,Especially ten interview think,441.png,0
442,0,dark american-belgo-style ale,98.44,true,5,Series very site letter,442.png,0
443,0,dortmunder/european-style export,70.41,true,5,Firm government majority newspaper onto above,443.png,0
444,0,dry lager,81.08,true,5,Knowledge anyone wall main,444.png,0
445,0,english-style brown ale,94.69,true,5,Both information hair level anyone parent,445.png,0
446,0,english-style dark mild ale,12.31,true,5,Behavior employee much every money,446.png,0
447,0,english-style india pale ale,48.85,true,5,According each great focus,447.png,0
448,0,english-style pale mild ale,4.32,true,5,Condition clear list decade like,448.png,0
449,0,english-style summer ale,30.96,true,5,Coach next happy case,449.png,0
450,0,european low-alcohol lager,17.35,true,5,Can approach require if nature perform,450.png,0
451,0,european-style dark,58.64,true,5,Right business both,451.png,0
452,0,experimental beer,83.44,true,5,Support expert five difficult animal,452.png,0
453,0,extra special bitter,28.52,true,5,At concern best respond compare,453.png,0
454,0,field beer,44.44,true,5,Base its raise firm,454.png,0
455,0,foreign (export)-style stout,59.64,true,5,Appear or evidence pattern art,455.png,0
456,0,french & belgian-style saison,60.65,true,5,Particular beat kid impact southern,456.png,0
457,0,french-style biere de garde,56.99,true,5,Human three maintain feel,457.png,0
458,0,fresh hop ale,40.53,true,5,Upon spend even wait,458.png,0
459,0,fruit beer,60.61,true,5,Talk pick hold,459.png,0
460,0,fruit wheat ale or lager,66.42,true,5,Participant Congress my although while,460.png,0
461,0,german-style brown ale/altbier,9.24,true,5,Picture available safe so billion through,461.png,0
462,0,german-style doppelbock,47.15,true,5,Year establish just can left art,462.png,0
463,0,german-style eisbock,64.06,true,5,Something gas child some event care,463.png,0
464,0,german-style heller bock/maibock,68.90,true,5,Second politics PM building sea,464.png,0
465,0,german-style kolsch,76.65,true,5,Possible grow test condition particularly important,465.png,0
466,0,german-style leichtes weizen,88.21,true,5,Provide tonight happen involve within us,466.png,0
467,0,german-style marzen,6.02,true,5,Realize responsibility mean others,467.png,0
468,0,german-style oktoberfest,76.63,true,5,Only perhaps fish prove forget take,468.png,0
469,0,german-style pilsener,51.93,true,5,We sense develop race appear,469.png,0
470,0,german-style rye ale,11.81,true,5,Movie what modern southern bed yes way,470.png,0
471,0,german-style schwarzbier,56.99,true,5,Interesting example source public,471.png,0
472,0,gluten-free beer,33.89,true,5,Big across off,472.png,0
473,0,golden or blonde ale,56.48,true,5,Single which nation,473.png,0
474,0,herb and spice beer,41.49,true,5,Stay like size local rather garden,474.png,0
475,0,imperial or double india pale ale,63.26,true,5,Lose control pressure material protect,475.png,0
476,0,imperial or double red ale,40.55,true,5,Everyone image camera contain often,476.png,0
477,0,international-style pale ale,40.15,true,5,Environment practice treat,477.png,0
478,0,international-style pilsener,38.87,true,5,Government third pull particularly black official break,478.png,0
479,0,irish-style red ale,76.57,true,5,Herself manager international dream,479.png,0
480,0,japanese sake-yeast beer,8.59,true,5,Need crime quality say good,480.png,0
481,0,kellerbier - ale,37.26,true,5,Join full send box,481.png,0
482,0,kellerbier - lager,5.76,true,5,Those ground small remain development,482.png,0
483,0,latin american-style light lager,14.67,true,5,Interest learn alone happen happy wrong,483.png,0
484,0,leipzig-style gose,28.56,true,5,Realize number town himself huge,484.png,0
485,0,light american wheat ale or lager,29.85,true,5,Place stand once side,485.png,0
486,0,munchner-style helles,20.81,true,5,Prepare suggest maybe official spend,486.png,0
487,0,non-alcoholic beer,99.88,true,5,Many pull speak best,487.png,0
488,0,oatmeal stout,65.20,true,5,Forward among better garden wonder,488.png,0
489,0,old ale,48.07,true,5,Class team child agree bill moment,489.png,0
490,0,ordinary bitter,39.91,true,5,Offer American do dream its,490.png,0
491,0,other belgian-style ales,48.66,true,5,View message available personal trip,491.png,0
492,0,other strong ale or lager,53.83,true,5,Third again cost soldier,492.png,0
493,0,out of category,83.65,true,5,Allow building use million none although,493.png,0
494,0,pale american-belgo-style ale,98.95,true,5,Man father court toward,494.png,0
495,0,porter,27.08,true,5,Enjoy our night fall eight chair,495.png,0
496,0,pumpkin beer,37.72,true,5,Individual think least,496.png,0
497,0,robust porter,21.03,true,5,Up buy again push,497.png,0
498,0,scotch ale,84.61,true,5,Pay other raise heavy toward maintain,498.png,0
499,0,scottish-style export ale,25.06,true,5,Early step dog ten science her,499.png,0
500,0,scottish-style heavy ale,22.97,true,5,Artist little focus,500.png,0
501,0,scottish-style light ale,10.20,true,5,Away pass food about bag office,501.png,0
502,0,session beer,63.79,true,5,Attack rock voice partner,502.png,0
503,0,smoke beer,27.73,true,5,Sort argue why always,503.png,0
504,0,smoke porter,46.37,true,5,Cause already language subject and particular,504.png,0
505,0,south german-style bernsteinfarbenes weizen,31.78,true,5,Away be raise,505.png,0
506,0,south german-style dunkel weizen,50.12,true,5,Culture use Mrs exactly,506.png,0
507,0,south german-style hefeweizen,42.75,true,5,Hold far since explain politics,507.png,0
508,0,south german-style kristal weizen,26.89,true,5,Executive until fish range beyond who,508.png,0
509,0,south german-style weizenbock,75.73,true,5,Want tonight north south maybe college,509.png,0
510,0,special bitter or best bitter,43.25,true,5,Customer authority edge myself huge,510.png,0
511,0,specialty beer,82.05,true,5,Top area place,511.png,0
512,0,specialty honey lager or ale,66.20,true,5,Garden best week myself,512.png,0
513,0,specialty stouts,37.24,true,5,Lot article ago,513.png,0
514,0,strong ale,67.82,true,5,Start affect yourself walk detail,514.png,0
515,0,sweet stout,73.07,true,5,Our add good life up,515.png,0
516,0,traditional german-style bock,27.52,true,5,Stand take all employee change suddenly,516.png,0
517,0,tropical-style light lager,86.21,true,5,Majority join against happen,517.png,0
518,0,vienna-style lager,43.05,true,5,Artist moment send mean any,518.png,0
519,0,winter warmer,57.33,true,5,Bad be great,519.png,0
520,0,wood- and barrel-aged beer,56.08,true,5,Fall grow industry her stand,520.png,0
521,0,wood- and barrel-aged dark beer,69.04,true,5,Discuss fill tax continue thousand,521.png,0
522,0,wood- and barrel-aged pale to amber beer,60.98,true,5,Official anyone surface,522.png,0
523,0,wood- and barrel-aged sour beer,99.70,true,5,Source room coach southern,523.png,0
524,0,wood- and barrel-aged strong beer,100.49,true,5,Author item whatever blood family his,524.png,0
525,0,bagel,75.83,true,6,Later huge even eat,525.png,0
526,0,baguette,0.52,true,6,Walk realize teach dream discussion never,526.png,0
527,0,boule,62.54,true,6,We produce camera treatment expect industry must,527.png,0
528,0,brioche,39.18,true,6,Wife they author record young member,528.png,0
529,0,casalinga,36.90,true,6,Course bill life,529.png,0
530,0,chapati,19.67,true,6,Produce describe level during experience,530.png,0
531,0,ciabatta,9.26,true,6,Who development how themselves,531.png,0
532,0,cornbread,39.14,true,6,During computer especially,532.png,0
533,0,crumpet,79.59,true,6,Perhaps fight better room,533.png,0
534,0,epi,36.28,true,6,Yes then threat,534.png,0
535,0,ficelle,73.92,true,6,Political figure seek raise,535.png,0
536,0,flatbread,31.64,true,6,Message example bar activity exist,536.png,0
537,0,focaccia,60.65,true,6,Then total small,537.png,0
538,0,fruit bread,20.01,true,6,Friend home thousand big fact entire,538.png,0
539,0,hamburger bun,54.61,true,6,Address we development interest strategy,539.png,0
540,0,hardtack,89.30,true,6,Leg yeah hear serve,540.png,0
541,0,lavash,66.95,true,6,Interest as military education job,541.png,0
542,0,matzoh,41.36,true,6,Report road doctor measure investment,542.png,0
543,0,muffin,57.26,true,6,Stand like simple race,543.png,0
544,0,naan,27.25,true,6,Figure production meet,544.png,0
545,0,pain au levain,11.09,true,6,Ground produce certain really defense receive,545.png,0
546,0,pain de mie,6.17,true,6,Not sell dream fact,546.png,0
547,0,pane d'olive,53.42,true,6,Direction network house allow difficult artist,547.png,0
548,0,paratha,57.49,true,6,Represent production place,548.png,0
549,0,pita,2.71,true,6,Because project assume back of,549.png,0
550,0,potato bread,86.21,true,6,American alone south,550.png,0
551,0,pretzel,75.42,true,6,Relationship hair important them,551.png,0
552,0,pumpernickel,18.08,true,6,Mrs government degree grow,552.png,0
553,0,roti,94.59,true,6,Spring at late,553.png,0
554,0,rugbrød,51.44,true,6,Example have join,554.png,0
555,0,rye,75.34,true,6,Our agent relationship seem can worry,555.png,0
556,0,scone,60.50,true,6,Choose their tend walk hard,556.png,0
557,0,soda bread,54.41,true,6,Much fast morning general,557.png,0
558,0,sourdough,10.90,true,6,Nearly standard during name may receive,558.png,0
559,0,tortilla,31.51,true,6,Watch seat pull,559.png,0
560,0,baklava,40.27,true,7,Activity red toward arrive fill,560.png,0
561,0,bomboloni,71.03,true,7,Thus truth reduce interesting,561.png,0
562,0,canelé,34.76,true,7,Sit white present mind,562.png,0
563,0,cinnamon roll,15.63,true,7,Effect senior raise probably say than,563.png,0
564,0,croissant,0.17,true,7,Everyone himself live position ok newspaper,564.png,0
565,0,cronut,97.50,true,7,Kid thank when body church,565.png,0
566,0,doughnut,29.43,true,7,Perform never large sort agent,566.png,0
567,0,éclair,61.31,true,7,Baby fish investment dog animal,567.png,0
568,0,gulab jamun,39.74,true,7,Contain special leader why use marriage,568.png,0
569,0,kouign-amann,52.04,true,7,They soldier then risk read us,569.png,0
570,0,mille-feuille,84.92,true,7,Growth serve son least,570.png,0
571,0,morning bun,44.66,true,7,Their lose understand whom few level,571.png,0
572,0,pain au chocolat,75.90,true,7,Soon soon wrong myself describe,572.png,0
573,0,pastel de nata,59.83,true,7,Clearly goal month,573.png,0
574,0,profiterole,86.06,true,7,Return likely such,574.png,0
575,0,rugelach,79.01,true,7,Commercial safe most,575.png,0
576,0,shortcake,44.37,true,7,Film either especially candidate,576.png,0
577,0,stollen,85.41,true,7,Dinner American difference,577.png,0
578,0,strudel,15.00,true,7,At expect offer personal pattern finally,578.png,0
579,0,toaster strudel,100.77,true,7,Other break cover success themselves,579.png,0
580,0,88th Night Shincha Organic,92.37,true,8,Receive far economic evidence southern,580.png,0
581,0,Adam's Peak White,4.04,true,8,Language financial exactly over decade,581.png,0
582,0,Amacha,0.18,true,8,Position foot compare continue rich,582.png,0
583,0,Amber Oolong,16.24,true,8,On send tend,583.png,0
584,0,Ancient Green,95.49,true,8,Force car sit candidate once,584.png,0
585,0,Anji Bai Cha,89.02,true,8,Character side want,585.png,0
586,0,Anthemis,45.18,true,8,Drive newspaper tax six peace,586.png,0
587,0,Apricot with Flowers,43.84,true,8,Fall paper spring significant similar,587.png,0
588,0,Aracha,55.25,true,8,This enjoy boy former PM task,588.png,0
589,0,Assam GFOP Organic,33.25,true,8,Long son human lead lot politics,589.png,0
590,0,Assam GFOP,1.34,true,8,Example expect front prevent read woman,590.png,0
591,0,Assam,25.53,true,8,Seek exist worker future share,591.png,0
592,0,Bai Jiguan,78.49,true,8,Among agent charge mother,592.png,0
593,0,Bai Mudan,7.15,true,8,Strong value value stock,593.png,0
594,0,Baihao Yinzhen,42.34,true,8,Page recently process kid score reason,594.png,0
595,0,Baimao Hou,88.94,true,8,Firm though over why statement become,595.png,0
596,0,Baker Street Afternoon Blend,4.70,true,8,Movie possible age,596.png,0
597,0,Balasun Estate SFTGFOP1 First Flush,78.66,true,8,That lay size feeling evidence,597.png,0
598,0,Ban Tian Yao,76.87,true,8,Big commercial until hit heart list,598.png,0
599,0,Bancha,16.24,true,8,Cut early appear your,599.png,0
600,0,Belgachi Special Assam Oolong,43.44,true,8,Against several live,600.png,0
601,0,Biluochun,69.97,true,8,Explain admit war station not,601.png,0
602,0,Bitter Melon,62.70,true,8,Small mouth president,602.png,0
603,0,Black Dragon,32.22,true,8,Spring west traditional under,603.png,0
604,0,Black Label Breakfast Fannings,24.45,true,8,Suddenly throughout out six,604.png,0
605,0,Black with Vanilla,39.03,true,8,Ten open media,605.png,0
606,0,Black,23.95,true,8,Or decide out require realize,606.png,0
607,0,Blackcurrant,84.64,true,8,Success understand recent guess letter lot,607.png,0
608,0,Blue Flower,63.90,true,8,Writer window firm writer father produce,608.png,0
609,0,Bohea Special,44.72,true,8,Training indeed site north similar,609.png,0
610,0,Boldo,59.03,true,8,Add stage which,610.png,0
611,0,Bos Ice,97.78,true,8,Determine weight such traditional continue,611.png,0
612,0,Brazilian passion fruit,68.38,true,8,Player despite artist,612.png,0
613,0,brown rice,47.99,true,8,Value long suffer left although,613.png,0
614,0,Bu Zhi Chun,48.05,true,8,Instead material focus smile also Democrat,614.png,0
615,0,Buddha's Palm,50.53,true,8,Maintain support while knowledge,615.png,0
616,0,Builder's,49.14,true,8,Court fast a conference worker less,616.png,0
617,0,Butter,52.32,true,8,Suffer ready brother attorney,617.png,0
618,0,Cannabis,16.55,true,8,Avoid Congress black provide,618.png,0
619,0,Cape Cod Cranberry Fruit,46.00,true,8,Think popular boy hold couple phone,619.png,0
620,0,Castleton Estate FTGFOP1 Moonlight,62.10,true,8,Politics edge choice threat,620.png,0
621,0,Celestial Tribute,4.42,true,8,Ready religious head friend,621.png,0
622,0,Certified Organic Peppermint,60.10,true,8,Million add company industry push,622.png,0
623,0,Ceylon English Breakfast,60.52,true,8,Alone memory democratic response follow,623.png,0
624,0,Ceylon Ruhuna BOP1,0.61,true,8,Support with and opportunity senior eye,624.png,0
625,0,Ceylon Select,86.75,true,8,Audience final clear,625.png,0
626,0,Ceylon Uva OP Organic,22.61,true,8,Around culture catch under,626.png,0
627,0,Cha Premium Organic,8.23,true,8,Huge soldier decision,627.png,0
628,0,Chai Decaffeinated,5.76,true,8,Possible economy service he,628.png,0
629,0,Chai Spice,4.19,true,8,Middle movement wrong fund,629.png,0
630,0,Chai,1.70,true,8,Commercial low future next,630.png,0
631,0,Chamillo Blend,90.90,true,8,Culture study available example north single,631.png,0
632,0,Chamomile With Lemongrass,75.83,true,8,Every the her home,632.png,0
633,0,Chamomile,87.41,true,8,Speak fine and hour,633.png,0
634,0,Chamraj Estate FOP,10.68,true,8,Unit take reality cost,634.png,0
635,0,Chifir,5.42,true,8,Whose level indicate animal,635.png,0
636,0,China Aged,5.57,true,8,Recent much establish risk listen second,636.png,0
637,0,China Black FOP,41.42,true,8,Effort recognize support small right impact,637.png,0
638,0,China Black Pearls,48.18,true,8,Discussion positive important ten maintain,638.png,0
639,0,China Chun Mee,9.64,true,8,Interview school body party blue value,639.png,0
640,0,China Congou Fannings Organic,18.84,true,8,Truth painting civil phone,640.png,0
641,0,China Congou Panyang (Panyong),57.98,true,8,Learn begin region,641.png,0
642,0,China Congou,50.11,true,8,Affect second course,642.png,0
643,0,China Green Decaffeinated,14.37,true,8,Page but community,643.png,0
644,0,China Green Gyokuro Organic,2.03,true,8,Cold wrong standard instead,644.png,0
645,0,China Green Mao Jian 'B' Organic,35.54,true,8,Run until method,645.png,0
646,0,China Green,21.83,true,8,Talk body as,646.png,0
647,0,China Jasmine Da Zhang Organic,26.53,true,8,Professional great apply company,647.png,0
648,0,China Jasmine,43.21,true,8,Sure seven three stop store,648.png,0
649,0,China Keemun First Grade,43.25,true,8,Never page defense spend,649.png,0
650,0,China Keemun Mao Feng,19.39,true,8,Week soon officer thought him effort,650.png,0
651,0,China Lychee,53.95,true,8,Drop figure most various,651.png,0
652,0,China Oolong,3.31,true,8,Education step guess food worker,652.png,0
653,0,China Panyang Congou,76.46,true,8,Sing just room wife card,653.png,0
654,0,China Rose Special Chun Mee,28.22,true,8,Place floor fear season,654.png,0
655,0,China Silver Needle,33.21,true,8,Scene peace program school phone produce,655.png,0
656,0,China Special Green Organic,96.47,true,8,Yourself always theory,656.png,0
657,0,China Yunnan Organic,53.56,true,8,Over change word western,657.png,0
658,0,China Yunnan Rare Grade,86.89,true,8,Must group already smile game note,658.png,0
659,0,Chinese Herb,16.93,true,8,Others cold approach chair,659.png,0
660,0,Chinese Ornamental Brick,41.07,true,8,Next why seat necessary debate,660.png,0
661,0,Chinese Sweet,5.73,true,8,All turn she,661.png,0
662,0,Chiran,59.70,true,8,Beautiful anyone doctor,662.png,0
663,0,Chocolate Earl Grey,99.57,true,8,Return skill rise candidate,663.png,0
664,0,Christmas,11.82,true,8,Expert space goal religious space,664.png,0
665,0,Chrysanthemum,95.99,true,8,Discussion without successful catch anyone,665.png,0
666,0,Chun Mee,91.93,true,8,Kid however billion different,666.png,0
667,0,Cinnamon Plum Fruit,86.67,true,8,Carry travel themselves hospital,667.png,0
668,0,Cloud,73.22,true,8,Ok notice west task,668.png,0
669,0,Coca,87.91,true,8,A hot year recently color,669.png,0
670,0,Coffee Cherry,17.24,true,8,West structure reality rate,670.png,0
671,0,Coffee,29.08,true,8,Authority of western production they whatever,671.png,0
672,0,Competition Temomicha Grade A,41.22,true,8,Protect nation resource decide cell,672.png,0
673,0,Compressed,29.44,true,8,Forget consumer campaign however,673.png,0
674,0,Congou,95.82,true,8,Clearly simple father resource however,674.png,0
675,0,Constant Comment,81.72,true,8,Start mother TV little season indicate brother,675.png,0
676,0,Crème Caramel,94.18,true,8,Drug couple nothing program impact upon,676.png,0
677,0,Crème Vanilla,23.82,true,8,Often recent five discover,677.png,0
678,0,CTC Fine Assam,55.39,true,8,Style half born maybe,678.png,0
679,0,CTC Irish Breakfast Blend,63.54,true,8,Plant positive threat,679.png,0
680,0,Cyclopia,9.77,true,8,Ten chance Republican machine itself,680.png,0
681,0,Dafang,40.10,true,8,Operation computer throw campaign small,681.png,0
682,0,Daisajan Estate GFBOP,0.55,true,8,Friend key receive leg recently,682.png,0
683,0,Dandelion,95.69,true,8,Short probably bill,683.png,0
684,0,Darjeeling FTGFOP Special Blend,91.45,true,8,Seven today station,684.png,0
685,0,Darjeeling FTGFOP1,25.79,true,8,Either idea hot consider item,685.png,0
686,0,Darjeeling Second Flush BOP Blend,46.18,true,8,Dog table live language offer tonight,686.png,0
687,0,Darjeeling,1.27,true,8,Religious the TV history while,687.png,0
688,0,Darjeeling-Ceylon,25.64,true,8,Computer create history agree range star,688.png,0
689,0,Devonshire Earl Grey,43.63,true,8,Billion product require military apply and,689.png,0
690,0,Dianhong,77.92,true,8,It final audience,690.png,0
691,0,Dikom Estate GTGFOP1,83.92,true,8,Experience our onto much,691.png,0
692,0,Dikom Estate TGFOP1,43.42,true,8,No road majority prepare,692.png,0
693,0,Dimbula BOP,36.63,true,8,Alone nation animal,693.png,0
694,0,Dongfang Meiren,27.13,true,8,Fact stop religious,694.png,0
695,0,Doomni Estate GTGBOP Cl.,1.38,true,8,Discuss cause produce,695.png,0
696,0,Doomni Estate TGFOP1 Cl.,67.27,true,8,Arm even tree life national kid,696.png,0
697,0,Dragon Phoenix Pearl,34.46,true,8,Now wrong carry despite religious player,697.png,0
698,0,Earl Grey Green Decaffeinated,56.68,true,8,Agree physical rock,698.png,0
699,0,Earl Grey Supreme,97.24,true,8,Of enough himself issue,699.png,0
700,0,Earl Grey with Lavender,21.07,true,8,Number go race something,700.png,0
701,0,Earl Grey,69.90,true,8,One water seem right,701.png,0
702,0,East Frisian BOP,87.06,true,8,Subject eye performance student,702.png,0
703,0,East Frisian TGFOP,52.13,true,8,Song environment what home,703.png,0
704,0,East Frisian,59.13,true,8,First be material human debate,704.png,0
705,0,Eastern Beauty Oolong,95.76,true,8,Drug effect prepare,705.png,0
706,0,Egyptian Chamomile,97.49,true,8,Mind address have full,706.png,0
707,0,English Breakfast,2.47,true,8,Someone form local analysis,707.png,0
708,0,Essiac,35.74,true,8,Wear guess information down cup,708.png,0
709,0,Extra Bergamot English Earl Grey,51.39,true,8,Parent significant citizen position theory or,709.png,0
710,0,FBOPF Ex. Sp.,37.47,true,8,Serious road consumer,710.png,0
711,0,Feng Huang Dan Cong Supreme,64.25,true,8,Trial three unit sing event,711.png,0
712,0,Fermented,5.12,true,8,Lot any according worker,712.png,0
713,0,Finest Earl Grey,97.48,true,8,National window network list town,713.png,0
714,0,Finest Russian Caravan,24.90,true,8,Another choose central rich,714.png,0
715,0,First Grade Gunpowder Green,34.87,true,8,Nature animal guy some learn final,715.png,0
716,0,Flavored,51.32,true,8,Piece by sense provide make,716.png,0
717,0,Floral Huang Jin Gui Oolong,46.58,true,8,Some debate special participant realize,717.png,0
718,0,Flowering,46.06,true,8,Age technology imagine name address bad,718.png,0
719,0,Fo Shou,91.35,true,8,Choice person task nature interest,719.png,0
720,0,Formosa GABA Oolong,4.31,true,8,Here together while center shake,720.png,0
721,0,Formosa Keemun,59.84,true,8,About must into fight seek though,721.png,0
722,0,Formosa Lapsang Souchong,18.29,true,8,Less expect growth dark investment son,722.png,0
723,0,Formosa Oolong Choicest,22.82,true,8,Watch service style,723.png,0
724,0,Formosa Oolong,57.19,true,8,And live worry who college,724.png,0
725,0,Formosa Pouchong,32.59,true,8,Plant actually catch,725.png,0
726,0,Foucha Imperial Organic,11.39,true,8,Above three we grow,726.png,0
727,0,Frances Bissell's Special Blend,41.08,true,8,Land meet debate poor you,727.png,0
728,0,Fuding White Cake,83.76,true,8,Understand community at detail road sometimes,728.png,0
729,0,Fujian Green Needle,15.28,true,8,Argue range assume,729.png,0
730,0,Ganesh Green Assam,26.16,true,8,Point sea serious himself relationship describe,730.png,0
731,0,Gaoshan,53.93,true,8,Prepare toward always old environment sound,731.png,0
732,0,Genmaicha,50.63,true,8,Must each night,732.png,0
733,0,Ghillidary Estate TGFOP,56.17,true,8,Which wonder huge though contain,733.png,0
734,0,Golden Monkey,5.48,true,8,Capital back seem home hour occur,734.png,0
735,0,Golden Nepal,66.51,true,8,Member lead rest seem war mean,735.png,0
736,0,Goomtee Estate FTGFOP1 First Flush,33.87,true,8,Choose guy effect go,736.png,0
737,0,Green Extract,26.73,true,8,Among phone painting,737.png,0
738,0,Green Fannings Organic,31.01,true,8,May break much sit production ahead,738.png,0
739,0,Green Honeybush Organic,13.07,true,8,Nothing spend then,739.png,0
740,0,Green Ice Cream,38.03,true,8,Interesting fire model American lead,740.png,0
741,0,Green Rooibos,5.75,true,8,Develop model action,741.png,0
742,0,Green Red Ginseng,54.71,true,8,Gas as town support tell class,742.png,0
743,0,Green Tamacha,10.54,true,8,Listen poor fire relationship,743.png,0
744,0,Green Yerba Maté,65.29,true,8,Job plan through everybody official,744.png,0
745,0,Green,45.53,true,8,Direction forget impact something station money,745.png,0
746,0,Gu Zhang Mao Jian,18.90,true,8,People middle than their about,746.png,0
747,0,Guayakí,0.14,true,8,Care down page study,747.png,0
748,0,Gugija Cha,11.67,true,8,Head pressure pressure center,748.png,0
749,0,Gunpowder Green Peppermint,92.33,true,8,Newspaper assume daughter,749.png,0
750,0,Gunpowder Green,6.78,true,8,At popular people Mr against,750.png,0
751,0,Gunpowder,17.23,true,8,Score likely force have,751.png,0
752,0,Gynostemma Pentaphyllum,9.89,true,8,Memory him trouble,752.png,0
753,0,Gyokuro (lit. Jewel Dew),14.77,true,8,Blood tonight grow,753.png,0
754,0,Gyokuro,65.09,true,8,Have share difficult,754.png,0
755,0,Halmari Estate CTC BOP,24.72,true,8,Mind single loss experience every tree,755.png,0
756,0,Halmari Estate GFOP Cl.,38.58,true,8,Magazine vote entire age type investment,756.png,0
757,0,Halmari Estate GTGFOP1 Cl.,52.39,true,8,Resource grow door already family final,757.png,0
758,0,Halmari Estate TGFBOP1,47.56,true,8,Age institution control quality receive daughter,758.png,0
759,0,Halmari Estate TGFOP Cl.,15.79,true,8,Worry loss include economic,759.png,0
760,0,Halmari Estate TGFOP,39.62,true,8,Prove become either miss cost too,760.png,0
761,0,Halmari Estate TGFOP1,11.04,true,8,Beyond kitchen simple human,761.png,0
762,0,Harishpur Estate TGFBOP,34.36,true,8,I land play generation baby prepare explain,762.png,0
763,0,Harmutty Estate GFBOP,53.66,true,8,Really if indicate office dog receive,763.png,0
764,0,Harmutty Estate TGFOP,84.30,true,8,Hospital walk hear outside least,764.png,0
765,0,Hearthside Chai,79.52,true,8,Explain final chance cover,765.png,0
766,0,Heavy-Baked,48.00,true,8,Save matter dog deep staff push,766.png,0
767,0,Heirloom Flowers Organic,82.70,true,8,Keep the important,767.png,0
768,0,Heirloom Yunnan Yellow Buds,100.52,true,8,Thus focus environmental professor,768.png,0
769,0,Herbal,20.00,true,8,Amount issue long,769.png,0
770,0,Herbs and Berries,64.20,true,8,Matter glass time score fly,770.png,0
771,0,Heritage Assam Green Spl.,49.01,true,8,Enter economic offer science want,771.png,0
772,0,"Hibiscus Flowers, Coarse Cut",50.95,true,8,Likely line yet,772.png,0
773,0,Hibiscus,73.05,true,8,Front born baby visit none population,773.png,0
774,0,Hojicha,61.12,true,8,Heavy fish purpose interview,774.png,0
775,0,Holy Basil Green Leaf Organic,95.50,true,8,Final follow bill would understand,775.png,0
776,0,Holy Basil Purple Leaf Organic,18.99,true,8,Easy civil body draw scientist customer call,776.png,0
777,0,Holy Basil,96.85,true,8,Again down before,777.png,0
778,0,Honey,50.46,true,8,Away race professional,778.png,0
779,0,Hong Kong-style Milk,33.07,true,8,Line shake bed show seem,779.png,0
780,0,Hong Tao Keemun,10.47,true,8,Yard police car interview,780.png,0
781,0,Hua Shan Huang Ya Yellow Buds,97.89,true,8,Keep hotel together evening,781.png,0
782,0,Huang Guanyin,51.55,true,8,Food knowledge sound,782.png,0
783,0,Huang Jin Gui Oolong,11.10,true,8,Former west sell base,783.png,0
784,0,Huang Meigui,42.00,true,8,Individual still management someone fear,784.png,0
785,0,Huang Shan Mao Feng,16.86,true,8,Hard teacher example federal Mr consider,785.png,0
786,0,Huang Shan Sunset,38.68,true,8,Dream draw for decade eye feel,786.png,0
787,0,Huang Ya Imperial Yellow,31.52,true,8,Media federal officer available,787.png,0
788,0,Huangjin Gui,22.96,true,8,Contain feel upon hear themselves,788.png,0
789,0,Huangshan Maofeng,66.10,true,8,Actually base cup executive,789.png,0
790,0,Hubei Province Keemun,87.22,true,8,Left reduce court artist cut rule,790.png,0
791,0,Hunan Mao Feng,69.51,true,8,Industry their start heavy skill heavy,791.png,0
792,0,Huoshan Huangya,62.84,true,8,Activity parent large voice,792.png,0
793,0,Hyson,73.80,true,8,Story marriage others,793.png,0
794,0,Iced Blend,19.88,true,8,International message theory care five rule,794.png,0
795,0,Iced,56.11,true,8,Worker ability newspaper by price,795.png,0
796,0,Ilex Guayusa,83.29,true,8,Mother window risk record big upon heavy,796.png,0
797,0,Ilex Kaushue,86.59,true,8,Politics notice board around,797.png,0
798,0,Imperial,94.48,true,8,Possible rather wear us whole ok,798.png,0
799,0,Indonesian Black,11.02,true,8,Appear think politics as,799.png,0
800,0,Introduction to Fine,48.91,true,8,Beyond so animal,800.png,0
801,0,Introduction to Oolongs,14.99,true,8,Against head message price standard,801.png,0
802,0,Irish Breakfast,89.85,true,8,Analysis wait nature cut song,802.png,0
803,0,Iyerpadi Estate BOP,47.24,true,8,Life history central best food husband,803.png,0
804,0,Iyerpadi Estate OP,85.51,true,8,Hard else claim,804.png,0
805,0,Jade Cloud Mist,51.07,true,8,Sing above front three,805.png,0
806,0,Jade Oolong,35.26,true,8,Democrat manage authority,806.png,0
807,0,Jagertee,99.72,true,8,Bit small after son degree mind,807.png,0
808,0,Japanese Cherry,24.65,true,8,Foreign difficult control animal,808.png,0
809,0,Japanese Green GABA (Gabaron),96.35,true,8,His lawyer member bit,809.png,0
810,0,Japanese Matcha,19.18,true,8,Hope quickly ago star beyond too,810.png,0
811,0,Japanese Oolong Organic,89.87,true,8,Must present everybody front when between,811.png,0
812,0,Japanese Sencha Special Grade,78.87,true,8,Method give economic another Congress if,812.png,0
813,0,Jasmine Fairy Maiden,94.39,true,8,Why home kid law,813.png,0
814,0,Jasmine Imperial,15.28,true,8,Option somebody cell box skin you,814.png,0
815,0,Jasmine Oolong,41.65,true,8,Get likely job beautiful above question,815.png,0
816,0,Jasmine Silver Needles,14.39,true,8,Long believe attack successful me team,816.png,0
817,0,Jasmine,69.91,true,8,Happy this detail land material,817.png,0
818,0,Java Blend,28.09,true,8,Society anything stage,818.png,0
819,0,Java Dewata Estate Silver Tips,89.54,true,8,Whatever amount speech,819.png,0
820,0,Java Malabar Estate OPS,50.46,true,8,Beyond thought daughter hospital security,820.png,0
821,0,Jin Fo,37.01,true,8,Fall his year computer,821.png,0
822,0,Jin Jun Mei,42.27,true,8,Place within economic state most experience,822.png,0
823,0,Jin Suo Chi,27.39,true,8,Visit region agent,823.png,0
824,0,Jin Xuan,4.89,true,8,Where morning suffer play people age,824.png,0
825,0,Jun Chiyabari Estate Green HP1,78.09,true,8,Receive hope huge,825.png,0
826,0,Jun Chiyabari Estate HRHT Organic,99.52,true,8,Process artist appear organization out themselves,826.png,0
827,0,Junshan Yinzhen,74.62,true,8,Fear between approach popular,827.png,0
828,0,Jūrokucha,62.55,true,8,Just never trade,828.png,0
829,0,Kabusecha,54.22,true,8,Seek plan race smile special ago,829.png,0
830,0,Kagoshima Green,65.09,true,8,Choose around nature professional,830.png,0
831,0,Kagoshima Kabuse Sencha,77.97,true,8,Generation two good,831.png,0
832,0,Kahwah,58.12,true,8,Beyond plant ability boy participant company,832.png,0
833,0,Kakegawa Matcha Organic,58.78,true,8,This culture very,833.png,0
834,0,Kakkonto,51.56,true,8,Store seven shoulder ground relate,834.png,0
835,0,Kamairicha,1.31,true,8,Put find natural,835.png,0
836,0,Kandy BOP Ceylon,20.92,true,8,Wide industry stuff direction player common,836.png,0
837,0,Kandy BOP,58.09,true,8,Fine dinner tell walk price husband,837.png,0
838,0,Kanyam Estate SFTGFOP1,80.86,true,8,Card serve defense create,838.png,0
839,0,Karha,68.29,true,8,Energy professor memory long,839.png,0
840,0,Keemun Mao Feng Imperial,43.78,true,8,Suggest protect painting if source,840.png,0
841,0,Keemun Mao Feng Xiang Luo,49.53,true,8,Loss natural member,841.png,0
842,0,Keemun Mao Feng,71.66,true,8,List figure test conference bar blood,842.png,0
843,0,Keemun Xiang Luo,35.74,true,8,Method budget stock represent his,843.png,0
844,0,Keemun,14.20,true,8,Left prove pick series wait,844.png,0
845,0,Kenilworth Estate OP,27.60,true,8,Pick family check,845.png,0
846,0,Kenilworth Estate OP1,20.45,true,8,Mrs site well thought computer commercial,846.png,0
847,0,Kenilworth Estate Pekoe,48.37,true,8,Become number catch not,847.png,0
848,0,Kensington Breakfast Blend,66.85,true,8,Wind present almost necessary share,848.png,0
849,0,Khima Full Moon Delight,12.48,true,8,Building get part cause,849.png,0
850,0,Kibena Estate Tanzania BP1,22.22,true,8,Score cultural room meet,850.png,0
851,0,Kombucha,53.27,true,8,Save style space mind number,851.png,0
852,0,Konacha,88.50,true,8,Pick together about,852.png,0
853,0,Korean Green Sejak Organic,19.60,true,8,Accept play character resource live leader,853.png,0
854,0,Kuding,72.64,true,8,Relate foot century laugh,854.png,0
855,0,Kukicha,28.28,true,8,Her cut mention walk,855.png,0
856,0,Kuzuyu,7.51,true,8,Race he represent so model way,856.png,0
857,0,Kyo Bancha Organic,82.48,true,8,Hospital enjoy truth her,857.png,0
858,0,Labrador,61.21,true,8,Someone change actually chance,858.png,0
859,0,Lady Grey,69.29,true,8,Language senior opportunity city good,859.png,0
860,0,Lahpet,27.33,true,8,Door debate myself indeed likely,860.png,0
861,0,Lapacho,34.38,true,8,Worry toward bill marriage,861.png,0
862,0,Lapsang Souchong,71.86,true,8,Score manage Mrs,862.png,0
863,0,Lei Cha,41.01,true,8,Dinner federal people song,863.png,0
864,0,"Lemon Grass, Coarse Cut",79.70,true,8,Manage white talk name herself,864.png,0
865,0,Lemon Rooibos,8.41,true,8,East dark authority learn apply,865.png,0
866,0,Lemon Verbena,61.92,true,8,Necessary authority black Republican artist,866.png,0
867,0,Lemon With Ginger,97.15,true,8,Daughter Mr decide sea sea three,867.png,0
868,0,Longjing,6.17,true,8,Purpose bill true government like glass,868.png,0
869,0,Lover's Leap Estate Pekoe 1,100.77,true,8,Stay maintain low development,869.png,0
870,0,Lu'an Melon Seed,14.30,true,8,Join season grow college,870.png,0
871,0,Lukwah Estate TGFBOP Spl.,89.57,true,8,Power example trip price Mr,871.png,0
872,0,Lumbini Estate FBOPF Ex. Sp.,79.75,true,8,Law role song animal impact,872.png,0
873,0,Lumbini Estate FBOPF Ex. Spl.,3.77,true,8,Career beautiful history store natural system,873.png,0
874,0,Lung Jing Te Ji,59.68,true,8,Difference view crime to boy,874.png,0
875,0,Lung-Ching,19.13,true,8,Four worry employee,875.png,0
876,0,Mackeypore Estate White Tips,53.79,true,8,Opportunity a return church,876.png,0
877,0,Maghrebi Mint,92.26,true,8,Girl word until may,877.png,0
878,0,Magnolia Blossom,60.00,true,8,Find try right full true oil,878.png,0
879,0,Malabar Estate Java OP Clonal,86.50,true,8,Similar be yard pattern,879.png,0
880,0,Mangalam Estate FTGFOP1 Cl.,36.93,true,8,Country recent sign wonder,880.png,0
881,0,Mango Indica,53.85,true,8,Car center more,881.png,0
882,0,Maojian,12.85,true,8,Body paper ground heavy various,882.png,0
883,0,Maracuja/Orange Fruit,100.84,true,8,Large card race black idea finally,883.png,0
884,0,Masala Chai,97.98,true,8,Choice way send dinner commercial third,884.png,0
885,0,Matcha Bowl,40.84,true,8,Finish across write raise hope computer,885.png,0
886,0,Matcha Scoop,85.90,true,8,Hair focus trial stuff significant language,886.png,0
887,0,Matcha Whisk,19.99,true,8,Remember including else message account product,887.png,0
888,0,Matcha,99.61,true,8,Good let open power social ask,888.png,0
889,0,Mate Cocido,68.91,true,8,Question Mr attorney seek structure require,889.png,0
890,0,Mate,94.41,true,8,Possible color painting them consider,890.png,0
891,0,Matricaria Chamomilla,7.55,true,8,Wall respond top may nor daughter,891.png,0
892,0,Mecha,33.60,true,8,Be for personal concern offer everyone,892.png,0
893,0,Meng Ding Huang Ya,22.17,true,8,Agency explain field attention maintain,893.png,0
894,0,Mengding Ganlu,12.09,true,8,Art fish agency,894.png,0
895,0,Micromeria Chionistrae,34.16,true,8,Responsibility out most,895.png,0
896,0,Micromeria Douglasii,80.57,true,8,Line trial house result site,896.png,0
897,0,Midsummer Dream,65.97,true,8,Just exactly article why,897.png,0
898,0,Milima Estate Kenya GFOP,22.87,true,8,Worker eye start,898.png,0
899,0,Milima Estate Kenya OP,35.87,true,8,Believe leg inside feel cover new,899.png,0
900,0,Mincing Lane Breakfast Blend,6.17,true,8,Option enter new work image relate,900.png,0
901,0,Misty Mao Feng,73.54,true,8,Third smile organization forget serve someone,901.png,0
902,0,Mokalbari East Estate GFBOP,17.16,true,8,Attack manage sing answer firm realize,902.png,0
903,0,Monk’s Blend,99.05,true,8,Present family people just recently remain,903.png,0
904,0,Moon Palace,13.00,true,8,Administration law my guy debate method,904.png,0
905,0,Moonlight White,55.45,true,8,Throw about significant,905.png,0
906,0,Moroccan Green Mint,69.43,true,8,Past according ready,906.png,0
907,0,Mushroom,29.36,true,8,Doctor stock least prepare,907.png,0
908,0,Mélange de Chamonix,77.80,true,8,Own society everything,908.png,0
909,0,Mélange Noël,88.45,true,8,Top phone note growth central,909.png,0
910,0,Nahorhabi Estate FTGFOP1 Cl.,36.39,true,8,Individual team market claim manager,910.png,0
911,0,Namring Estate FTGFOP1 First Flush,58.76,true,8,Seem activity program around risk,911.png,0
912,0,Natural Bergamot Earl Grey,29.79,true,8,Whole admit find,912.png,0
913,0,Nepali,20.44,true,8,Front politics up far,913.png,0
914,0,New England Harvest,23.78,true,8,Memory worry money,914.png,0
915,0,New Vithanakande FBOPF Ex. Spl.,92.38,true,8,Star than in,915.png,0
916,0,Nilgiri Broken Orange Pekoe,65.81,true,8,Heavy television to road,916.png,0
917,0,Nilgiri,79.79,true,8,Remain compare term,917.png,0
918,0,Noon Chai,82.80,true,8,Military away yes,918.png,0
919,0,North Tukvar Estate SFTGFOP,19.48,true,8,Democratic tree agency,919.png,0
920,0,Nuo Mi Ziang,95.37,true,8,Great remember as present,920.png,0
921,0,Nuwara Eliya BOP,10.05,true,8,Budget control deep well something pull,921.png,0
922,0,Oksusucha,6.24,true,8,Star simple often,922.png,0
923,0,Old South Meeting House,47.01,true,8,Consumer training practice return growth foreign,923.png,0
924,0,Oolong Fannings Organic,10.63,true,8,Style than determine away rich character ready,924.png,0
925,0,Oolong Standard Grade,60.60,true,8,Throw could realize writer method wait,925.png,0
926,0,Oolong,47.24,true,8,Nor put work,926.png,0
927,0,Orange Spice Imperial,49.55,true,8,Deal our government her,927.png,0
928,0,Orchid Oolong,17.65,true,8,Attorney yet military protect resource,928.png,0
929,0,Organic Australian Lemon Myrtle,38.85,true,8,Ground coach young couple four,929.png,0
930,0,Organic Black Benifuki,69.34,true,8,Me perhaps back technology apply low,930.png,0
931,0,Organic China Green Sencha,73.65,true,8,Fact manage question smile beyond,931.png,0
932,0,Organic China Pai Mu Tan,97.68,true,8,Once dream serious buy involve,932.png,0
933,0,Organic China Sencha,40.92,true,8,Relate eight necessary fine game heavy,933.png,0
934,0,Organic China,92.41,true,8,Left argue set between,934.png,0
935,0,Organic English Breakfast,27.54,true,8,Source discussion audience safe free off,935.png,0
936,0,Organic Ginger Root,68.88,true,8,Factor avoid produce,936.png,0
937,0,Organic Green Ceylon OP,28.24,true,8,Wish knowledge keep sure boy,937.png,0
938,0,Organic Green OP,82.20,true,8,Line amount team may technology like pressure,938.png,0
939,0,Organic Gunpowder,61.48,true,8,Director stop million behind may affect,939.png,0
940,0,Organic Gyokuro,74.15,true,8,Foot sport past,940.png,0
941,0,Organic Hunan Black Mao Feng,81.39,true,8,Film data move instead,941.png,0
942,0,Organic Jasmine Mao Feng,64.91,true,8,Step program building investment open,942.png,0
943,0,Organic Jasmine,60.59,true,8,Employee lot main Mr discuss great,943.png,0
944,0,Organic KUKI Cha GREEN,83.05,true,8,Strong hot series,944.png,0
945,0,Organic Leaf,49.18,true,8,Hour and glass local,945.png,0
946,0,Organic Rooibos,25.40,true,8,Senior citizen land group,946.png,0
947,0,Organic Saiqing,23.21,true,8,Call both green black reflect,947.png,0
948,0,Organic Spearmint,94.18,true,8,Out book wear,948.png,0
949,0,Organic Tamaryokucha,9.67,true,8,Personal tend responsibility,949.png,0
950,0,Organic Young Hyson Imperial,21.64,true,8,Professional modern develop,950.png,0
951,0,Original Earl Grey,74.27,true,8,Hundred check certainly product stock,951.png,0
952,0,Orthodox BOP Darjeeling,14.14,true,8,I cell democratic fund structure,952.png,0
953,0,Osmanthus Oolong,50.00,true,8,Score style better budget,953.png,0
954,0,Pai Mu Tan Select,52.61,true,8,Nothing join security young,954.png,0
955,0,Pai Mu Tan Special Grade Organic,76.79,true,8,Hear add loss old,955.png,0
956,0,Pan Long Yin Hao,71.55,true,8,Article can unit newspaper fund economy,956.png,0
957,0,Panyang Congou Classic,100.44,true,8,Feeling available lay,957.png,0
958,0,Panyang Congou Select,71.88,true,8,Safe daughter only black half,958.png,0
959,0,Panyang Congou Supreme,33.05,true,8,Likely material talk various,959.png,0
960,0,Panyang Golden Tribute,54.24,true,8,Guess little later,960.png,0
961,0,Panyang Tippy Mao Feng,71.28,true,8,Save speech design,961.png,0
962,0,Peace Iced,71.36,true,8,West its chair,962.png,0
963,0,Peace,27.20,true,8,Act about color major agree five,963.png,0
964,0,Peach Flavoreds,92.58,true,8,Pass author onto end view,964.png,0
965,0,Peach Melba Fruit,84.37,true,8,Off mind yet certainly,965.png,0
966,0,Peppermint,13.32,true,8,Hundred song focus scene dark might,966.png,0
967,0,Pi Lo Chun Imperial,15.45,true,8,Act indeed brother involve,967.png,0
968,0,Pi Lo Chun,3.50,true,8,Tell current yard deep teach,968.png,0
969,0,Pinhead Gunpowder,6.34,true,8,Hold bag pay nice budget,969.png,0
970,0,Poire Crème,30.96,true,8,Require full easy nor,970.png,0
971,0,Pomegranate Magnolia White,4.72,true,8,Young war issue throw boy clear,971.png,0
972,0,Pouchong,28.51,true,8,Ball imagine strong understand building,972.png,0
973,0,Pre-Chingming,5.48,true,8,Administration read could,973.png,0
974,0,Premium China Keemun,22.18,true,8,Course professional help perform voice tax,974.png,0
975,0,Pu-erh,15.35,true,8,Group relationship major special partner,975.png,0
976,0,Qilan,15.13,true,8,Firm budget test,976.png,0
977,0,Qing Zi You Yun (Lan Xiang),78.60,true,8,System three they chair general return,977.png,0
978,0,Qishr,91.71,true,8,Different measure opportunity great,978.png,0
979,0,Raspberry Fruit,50.35,true,8,Themselves show money item would ground,979.png,0
980,0,Red Groats,53.33,true,8,Least list us tend,980.png,0
981,0,Rhododendron,96.87,true,8,Car news responsibility avoid,981.png,0
982,0,Richmond Park Blend,56.40,true,8,Hot senior form beautiful discussion,982.png,0
983,0,River Shannon Breakfast Blend,32.10,true,8,Professional reveal wait,983.png,0
984,0,Rize,18.93,true,8,Air idea side difference me end,984.png,0
985,0,Roasted Barley,30.42,true,8,Under of meet bar raise,985.png,0
986,0,Roasted Oolong,100.63,true,8,Report space treatment result,986.png,0
987,0,Roasted Yerba Maté,94.74,true,8,Father type want drive,987.png,0
988,0,Rooibos Apple Cider,93.76,true,8,She television these general today,988.png,0
989,0,Rooibos Candied Almond,20.71,true,8,Development raise civil brother impact beyond,989.png,0
990,0,Rooibos Vanilla,64.10,true,8,Close professor certain identify grow,990.png,0
991,0,Rooibos,6.18,true,8,Baby memory door,991.png,0
992,0,Rose Congou,92.92,true,8,Behind save person prevent,992.png,0
993,0,Rose Hip,30.19,true,8,Gas appear with factor,993.png,0
994,0,Rose Hips,55.01,true,8,Adult lawyer price land adult,994.png,0
995,0,Roselle,68.25,true,8,Box number prepare late show,995.png,0
996,0,Rougui,62.96,true,8,Over south time feeling,996.png,0
997,0,Ruanzhi,100.88,true,8,Thousand themselves response,997.png,0
998,0,Russian Caravan,49.85,true,8,Ago tonight participant break light cold,998.png,0
999,0,Sacher Blend,52.24,true,8,Buy brother air more ground,999.png,0
1000,0,Sakurayu,90.60,true,8,Arrive toward year scene explain class,1000.png,0
1001,0,Satispur Estate TGFBOP Spl.,88.58,true,8,Key glass man claim on,1001.png,0
1002,0,Sayama,98.45,true,8,Newspaper magazine image,1002.png,0
1003,0,Scottish Breakfast Blend,10.09,true,8,Law other everybody,1003.png,0
1004,0,Se Chung Oolong Classic,57.96,true,8,Test senior public,1004.png,0
1005,0,Season's Pick Keemun,58.03,true,8,Nothing ask him radio,1005.png,0
1006,0,Season's Pick Young Hyson,27.37,true,8,Me success room design box,1006.png,0
1007,0,Sencha Tokujyo Ohashiri,58.20,true,8,Push great security man,1007.png,0
1008,0,Sencha,39.88,true,8,Military scientist movement free should any,1008.png,0
1009,0,Shai Zhen Zhu Shou Mei White Pearls,82.25,true,8,Hear foreign process team effect,1009.png,0
1010,0,Shai Zhen Zhu Silver Needle Pearl White,49.56,true,8,Ok thought front likely oil,1010.png,0
1011,0,Shincha,98.84,true,8,Receive development political sometimes,1011.png,0
1012,0,Shou Mei Classic,89.78,true,8,Turn stop view tree,1012.png,0
1013,0,Shoumei,60.86,true,8,Loss onto family assume how exactly,1013.png,0
1014,0,Shui Hsien,84.04,true,8,Alone forget despite statement tell particular,1014.png,0
1015,0,Shui Jin Gui,26.41,true,8,And size organization vote hospital summer,1015.png,0
1016,0,Si Da Ming Cong,58.87,true,8,Significant guess already government partner,1016.png,0
1017,0,Sichuan Zao Bei Jian,16.49,true,8,Cell think soldier,1017.png,0
1018,0,Sideritis,36.97,true,8,Forget play air sort color shoulder,1018.png,0
1019,0,Singbulli Estate FOP Exclusive,16.75,true,8,Pick sport myself drug range line,1019.png,0
1020,0,Spearmint,38.68,true,8,Part goal accept,1020.png,0
1021,0,Special Grade Jasmine,95.03,true,8,Yes Republican that,1021.png,0
1022,0,Spring Dragon,32.29,true,8,Behavior stop page,1022.png,0
1023,0,St. Isaac’s Blend,30.13,true,8,Nation sit beyond him skill,1023.png,0
1024,0,St. James Estate BOP,71.00,true,8,Interesting name something international offer,1024.png,0
1025,0,Sticky Rice,34.90,true,8,Need mean letter fill,1025.png,0
1026,0,Strathdon Estate CTC BP1,26.88,true,8,Tree dream western particular weight style,1026.png,0
1027,0,Strawberry Cream Fruit,27.75,true,8,Myself gas establish hand day,1027.png,0
1028,0,Strawberry/Kiwi Fruit,17.18,true,8,Party production ready,1028.png,0
1029,0,Sumatra BOP,4.02,true,8,Benefit under player just write still,1029.png,0
1030,0,Summer Blend,38.94,true,8,Together some participant discuss level blue,1030.png,0
1031,0,Sungnyung,54.34,true,8,Hair resource risk,1031.png,0
1032,0,Super Grade,4.04,true,8,Case situation money culture reason,1032.png,0
1033,0,Superfine Keemun,45.09,true,8,Rate while within top,1033.png,0
1034,0,Superior Grade,34.03,true,8,Red reality ahead we against age,1034.png,0
1035,0,Suutei Tsai,37.50,true,8,Mother around good great,1035.png,0
1036,0,Sweet Almond Green,54.64,true,8,Run item early degree,1036.png,0
1037,0,Sweet Honey Black,47.50,true,8,Care music think address Congress young,1037.png,0
1038,0,Sweet Orange,62.80,true,8,Student boy significant Republican finally,1038.png,0
1039,0,Sweet,34.68,true,8,Air business figure above,1039.png,0
1040,0,Söder,94.06,true,8,Third way get expert,1040.png,0
1041,0,Tagetes Lucida,79.99,true,8,Off while office,1041.png,0
1042,0,Tai Ping Hou Kui,38.09,true,8,She stock ask value,1042.png,0
1043,0,Taiping Houkui,65.42,true,8,Street hit magazine inside including soon,1043.png,0
1044,0,Tamaryokucha,20.35,true,8,News significant us alone,1044.png,0
1045,0,Tea Bank Estate FBOPF Ex. Sp.,29.68,true,8,Wall hard population,1045.png,0
1046,0,Tea Bank FBOPF Ex. Sp.,73.14,true,8,Store account American second somebody successful,1046.png,0
1047,0,Tereré,97.82,true,8,Soldier mouth book behind tend interesting,1047.png,0
1048,0,Thai,68.83,true,8,Nature executive price cell another dream,1048.png,0
1049,0,Thurbo Estate FTGFOP1 Moonlight,38.77,true,8,Subject similar station deal claim record,1049.png,0
1050,0,Tibeti,97.68,true,8,Only tonight cost strong avoid way,1050.png,0
1051,0,Tie-Guan-Yin,48.38,true,8,Decade tell everything,1051.png,0
1052,0,Tieguanyin,39.61,true,8,Speech technology political perform knowledge responsibility,1052.png,0
1053,0,Tieluohan,0.89,true,8,Score card must employee,1053.png,0
1054,0,Tindharia FTGFOP1 First Flush,95.23,true,8,Art feeling during black key participant,1054.png,0
1055,0,Tippy Orthodox FBOP Assam,4.27,true,8,Magazine cultural cut,1055.png,0
1056,0,Tippy Orthodox GBOP Assam,8.35,true,8,Them organization source woman blood,1056.png,0
1057,0,Tippy Orthodox GFOP Assam,91.28,true,8,Day sea trip try,1057.png,0
1058,0,Traditional Masala Chai,18.12,true,8,Civil what any hit significant none,1058.png,0
1059,0,Tropical Chai Spice,46.67,true,8,Floor factor pass analysis,1059.png,0
1060,0,Tsheringma,32.75,true,8,Road hit consumer remain religious interview,1060.png,0
1061,0,Tulsi,29.74,true,8,Forget policy two,1061.png,0
1062,0,Tung-ting,94.80,true,8,Result no evidence program offer,1062.png,0
1063,0,Tuo Cha Organic,61.24,true,8,Local very way mission,1063.png,0
1064,0,Tuo Cha Std.,50.66,true,8,Article case easy man,1064.png,0
1065,0,"Tuo Cha, Size 1",86.14,true,8,Issue kid life such,1065.png,0
1066,0,Turkish Apple,95.92,true,8,Friend bag more,1066.png,0
1067,0,Turkish Style Blend,32.14,true,8,Speak land state knowledge remember,1067.png,0
1068,0,Two leaves and a bud,84.92,true,8,Fine so toward,1068.png,0
1069,0,Ukoncha,21.21,true,8,Coach memory open international offer summer,1069.png,0
1070,0,Uva Special BOP,45.77,true,8,Quickly degree for scientist call cost,1070.png,0
1071,0,Vanilla Cream Fruit,73.80,true,8,We soon be,1071.png,0
1072,0,Vanilla Honeybush,9.77,true,8,Term during under someone talk left,1072.png,0
1073,0,Vanilla,14.17,true,8,Mr individual market week,1073.png,0
1074,0,Victorian Brew BOP1,15.78,true,8,Life Democrat cell share leader,1074.png,0
1075,0,Vietnam Green Mao Feng Organic,81.21,true,8,Thing himself fire evening,1075.png,0
1076,0,Vietnamese Lotus,76.94,true,8,Serious learn participant around late,1076.png,0
1077,0,Vietnamese,44.35,true,8,Discuss less another believe,1077.png,0
1078,0,Water Fairy Oolong,71.40,true,8,Get claim pattern,1078.png,0
1079,0,Wedang Jahe,18.41,true,8,White safe quickly industry which,1079.png,0
1080,0,White Needle,29.42,true,8,Top almost usually,1080.png,0
1081,0,White,62.07,true,8,Measure stock brother career long never,1081.png,0
1082,0,Wong Lo Kat,62.35,true,8,During million find condition,1082.png,0
1083,0,Wuyi,100.63,true,8,Beat late relate laugh might environment,1083.png,0
1084,0,Xia Sang Ju,81.06,true,8,Enjoy enter window,1084.png,0
1085,0,Xiang Bi Luo,35.84,true,8,Church owner cut,1085.png,0
1086,0,Yellow,83.13,true,8,Responsibility buy discover subject begin,1086.png,0
1087,0,Yerba Buena,52.70,true,8,Thing technology last,1087.png,0
1088,0,Yerba Mate,82.24,true,8,No force long car,1088.png,0
1089,0,Yin Jun Mee,45.91,true,8,Produce have matter parent network,1089.png,0
1090,0,Yingdehong,98.65,true,8,Teacher card whatever more might answer,1090.png,0
1091,0,Young Hyson,98.09,true,8,Provide against recently model close,1091.png,0
1092,0,Yuanyang,24.69,true,8,Safe can paper although break,1092.png,0
1093,0,Yujacha,73.55,true,8,Near matter cup,1093.png,0
1094,0,Yunnan Black Dragon Pearls,32.35,true,8,Huge ask get mother save,1094.png,0
1095,0,Yunnan Black Snail,68.93,true,8,Parent who issue,1095.png,0
1096,0,Yunnan Fannings Organic,29.00,true,8,More what heavy,1096.png,0
1097,0,Yunnan FBOP,98.45,true,8,Federal throughout very cause,1097.png,0
1098,0,Yunnan FOP Select,60.77,true,8,Some dream near the,1098.png,0
1099,0,Yunnan GFOP,86.22,true,8,Source market wide different development,1099.png,0
1100,0,Yunnan Golden Monkey,35.07,true,8,Among close whom management tough film,1100.png,0
1101,0,Yunnan Green Mao Feng,89.90,true,8,Law of education those,1101.png,0
1102,0,Yunnan Silver Spiral,76.42,true,8,Mind when weight range apply,1102.png,0
1103,0,Yunnan Silver Tip Mao Feng,38.96,true,8,Long growth fine it,1103.png,0
1104,0,Yunnan TGFOP,35.80,true,8,Support now everything every movie growth,1104.png,0
1105,0,Yunnan White Needle,1.59,true,8,Difficult less own watch appear,1105.png,0
1106,0,Zaloni Estate STGFOP,66.35,true,8,And establish story wife last,1106.png,0
1107,0,Zhang Ping Shui Hsian Oolong,18.63,true,8,Data develop great house,1107.png,0
